{
    "link_menu" : ":nth-child(5) > .headerCategoryL1-categoryName-neS",
    "producto_busqueda" : "3053",
    "producto_titulo" : "Gafas de filtro azul - Transparent Pink",
    "producto_precio" : "$3.000",
    "producto_SKU" :"54FOFO106"
}